…
set.seed(388588)
sharesIndex <- createDataPartition(sel_data$shares, p = 0.7, list = FALSE)
train <- sel_data[sharesIndex, ]
test <- sel_data[-sharesIndex, ]

train1 <- train %>% select(-class_shares, -shares, 
                           -weekday_is_monday, -weekday_is_tuesday, -weekday_is_wednesday, -weekday_is_thursday, 
                           -weekday_is_friday, -weekday_is_saturday, -weekday_is_sunday, -LDA_00, -LDA_01, -LDA_03, -LDA_04)
train1
```

    ## # A tibble: 4,382 x 11
    ##    log.shares dayweek kw_avg_avg LDA_02 self_reference_a~ n_non_stop_uniq~ average_token_l~ n_tokens_content n_tokens_title global_subjecti~
    ##         <dbl>   <dbl>      <dbl>  <dbl>             <dbl>            <dbl>            <dbl>            <dbl>          <dbl>            <dbl>
    ##  1       6.57       1         0  0.0501                0             0.792             4.91              255              9            0.341
    ##  2       8.04       1         0  0.0333                0             0.806             5.45              397              8            0.374
    ##  3       6.75       1         0  0.0500             2800             0.680             4.42              244             13            0.332
    ##  4       8.07       1         0  0.0286             6100             0.688             4.62              708              8            0.491
    ##  5       6.35       1         0  0.239                 0             0.792             4.27              142             10            0.443
    ##  6       6.71       1         0  0.0200              997.            0.755             4.81              444             12            0.462
    ##  7       7.60       3       802. 0.0500             2000             0.714             4.64              233              9            0.183
    ##  8       7.55       3       642. 0.0400             1200.            0.722             4.53              468             10            0.438
    ##  9       7.55       3       955. 0.0200             2100             0.804             4.94              173             11            0.622
    ## 10       6.47       3       930. 0.0286             4700             0.585             4.66              330              9            0.355
    ## # ... with 4,372 more rows, and 1 more variable: num_imgs <dbl>
…
``` r
b.plot2 <- b.plot1 %>% pivot_longer(cols = 3:7, names_to = "LDA.Topic", values_to = "avg.LDA")
b.plot2
```

    ## # A tibble: 70 x 4
    ##    day.week class.shares LDA.Topic avg.LDA
    ##    <fct>    <fct>        <chr>       <dbl>
    ##  1 Monday   Unpopular    LDA_0      0.628 
    ##  2 Monday   Unpopular    LDA_1      0.0811
    ##  3 Monday   Unpopular    LDA_2      0.0882
    ##  4 Monday   Unpopular    LDA_3      0.0593
    ##  5 Monday   Unpopular    LDA_4      0.143 
    ##  6 Monday   Popular      LDA_0      0.679 
    ##  7 Monday   Popular      LDA_1      0.0707
    ##  8 Monday   Popular      LDA_2      0.0799
    ##  9 Monday   Popular      LDA_3      0.0695
    ## 10 Monday   Popular      LDA_4      0.101 
    ## # ... with 60 more rows
…
``` r
l.plot2 <- l.plot1 %>% pivot_longer(cols = 3:7, names_to = "LDA.Topic", values_to = "avg.LDA")
l.plot2
```

    ## # A tibble: 70 x 4
    ##    day.week class.shares LDA.Topic avg.LDA
    ##    <fct>    <fct>        <chr>       <dbl>
    ##  1 Monday   Unpopular    LDA_0      0.628 
    ##  2 Monday   Unpopular    LDA_1      0.0811
    ##  3 Monday   Unpopular    LDA_2      0.0882
    ##  4 Monday   Unpopular    LDA_3      0.0593
    ##  5 Monday   Unpopular    LDA_4      0.143 
    ##  6 Monday   Popular      LDA_0      0.679 
    ##  7 Monday   Popular      LDA_1      0.0707
    ##  8 Monday   Popular      LDA_2      0.0799
    ##  9 Monday   Popular      LDA_3      0.0695
    ## 10 Monday   Popular      LDA_4      0.101 
    ## # ... with 60 more rows
…
``` r
train2 <- train %>% select(-class_shares, -shares, -dayweek, -LDA_00, -LDA_01, -LDA_03, -LDA_04)
test2 <- test %>% select(-class_shares, -shares, -dayweek, -LDA_00, -LDA_01, -LDA_03, -LDA_04)
train2
```

    ## # A tibble: 4,382 x 17
    ##    log.shares kw_avg_avg LDA_02 weekday_is_monday weekday_is_tuesday weekday_is_wednesday weekday_is_thur~ weekday_is_frid~ weekday_is_satu~
    ##         <dbl>      <dbl>  <dbl>             <dbl>              <dbl>                <dbl>            <dbl>            <dbl>            <dbl>
    ##  1       6.57         0  0.0501                 1                  0                    0                0                0                0
    ##  2       8.04         0  0.0333                 1                  0                    0                0                0                0
    ##  3       6.75         0  0.0500                 1                  0                    0                0                0                0
    ##  4       8.07         0  0.0286                 1                  0                    0                0                0                0
    ##  5       6.35         0  0.239                  1                  0                    0                0                0                0
    ##  6       6.71         0  0.0200                 1                  0                    0                0                0                0
    ##  7       7.60       802. 0.0500                 0                  0                    1                0                0                0
    ##  8       7.55       642. 0.0400                 0                  0                    1                0                0                0
    ##  9       7.55       955. 0.0200                 0                  0                    1                0                0                0
    ## 10       6.47       930. 0.0286                 0                  0                    1                0                0                0
    ## # ... with 4,372 more rows, and 8 more variables: weekday_is_sunday <dbl>, self_reference_avg_sharess <dbl>,
    ## #   n_non_stop_unique_tokens <dbl>, average_token_length <dbl>, n_tokens_content <dbl>, n_tokens_title <dbl>, global_subjectivity <dbl>,
    ## #   num_imgs <dbl>
…
