…
sel_data <- diffday %>% select(class_shares, shares, dayweek, kw_avg_avg, kw_avg_max, kw_avg_min, kw_max_avg, 
                               log.shares, LDA_00, LDA_01, LDA_02, LDA_03, LDA_04, 
                               weekday_is_monday, weekday_is_tuesday, weekday_is_wednesday,
                               weekday_is_thursday, weekday_is_friday, weekday_is_saturday, weekday_is_sunday,
                               self_reference_min_shares, self_reference_avg_sharess, 
                               n_non_stop_unique_tokens, n_unique_tokens, average_token_length, 
                               n_tokens_content, n_tokens_title, global_subjectivity, 
                               num_imgs, num_videos)
sel_data
```

    ## # A tibble: 7,057 x 30
    ##    class_shares shares dayweek kw_avg_avg kw_avg_max kw_avg_min kw_max_avg log.shares LDA_00 LDA_01 LDA_02 LDA_03 LDA_04 weekday_is_monday
    ##           <dbl>  <dbl>   <dbl>      <dbl>      <dbl>      <dbl>      <dbl>      <dbl>  <dbl>  <dbl>  <dbl>  <dbl>  <dbl>             <dbl>
    ##  1            0    593       1         0          0          0          0        6.39 0.500  0.378  0.0400 0.0413 0.0401                 1
    ##  2            0   1200       1         0          0          0          0        7.09 0.0286 0.419  0.495  0.0289 0.0286                 1
    ##  3            1   2100       1         0          0          0          0        7.65 0.0334 0.0345 0.215  0.684  0.0333                 1
    ##  4            0   1200       1         0          0          0          0        7.09 0.126  0.0203 0.0200 0.814  0.0200                 1
    ##  5            1   4600       1         0          0          0          0        8.43 0.200  0.340  0.0333 0.393  0.0333                 1
    ##  6            0   1200       1         0          0          0          0        7.09 0.0240 0.665  0.0225 0.266  0.0223                 1
    ##  7            0    631       1         0          0          0          0        6.45 0.456  0.482  0.0200 0.0213 0.0200                 1
    ##  8            0   1300       2      1114.      5725        461       2019.       7.17 0.0500 0.525  0.324  0.0510 0.0500                 0
    ##  9            1   1700       2       714.      4340        405       2019.       7.44 0.0400 0.840  0.0400 0.0401 0.0400                 0
    ## 10            0    455       3       707.      3833.       469.      1953.       6.12 0.0334 0.409  0.0333 0.491  0.0333                 0
    ## # ... with 7,047 more rows, and 16 more variables: weekday_is_tuesday <dbl>, weekday_is_wednesday <dbl>, weekday_is_thursday <dbl>,
    ## #   weekday_is_friday <dbl>, weekday_is_saturday <dbl>, weekday_is_sunday <dbl>, self_reference_min_shares <dbl>,
    ## #   self_reference_avg_sharess <dbl>, n_non_stop_unique_tokens <dbl>, n_unique_tokens <dbl>, average_token_length <dbl>,
    ## #   n_tokens_content <dbl>, n_tokens_title <dbl>, global_subjectivity <dbl>, num_imgs <dbl>, num_videos <dbl>
…
``` r
plotdata <- train
plotdata$class.shares <- cut(plotdata$class_shares, 2, c("Unpopular","Popular"))
plotdata$day.week <- cut(plotdata$dayweek, 7, c("Monday", "Tuesday", "Wednesday", "Thursday", "Friday", "Saturday", "Sunday"))
plotdata
```

    ## # A tibble: 4,941 x 32
    ##    class_shares shares dayweek kw_avg_avg kw_avg_max kw_avg_min kw_max_avg log.shares LDA_00 LDA_01 LDA_02 LDA_03 LDA_04 weekday_is_monday
    ##           <dbl>  <dbl>   <dbl>      <dbl>      <dbl>      <dbl>      <dbl>      <dbl>  <dbl>  <dbl>  <dbl>  <dbl>  <dbl>             <dbl>
    ##  1            0    593       1         0          0          0          0        6.39 0.500  0.378  0.0400 0.0413 0.0401                 1
    ##  2            0   1200       1         0          0          0          0        7.09 0.0286 0.419  0.495  0.0289 0.0286                 1
    ##  3            1   2100       1         0          0          0          0        7.65 0.0334 0.0345 0.215  0.684  0.0333                 1
    ##  4            0   1200       1         0          0          0          0        7.09 0.126  0.0203 0.0200 0.814  0.0200                 1
    ##  5            0   1200       1         0          0          0          0        7.09 0.0240 0.665  0.0225 0.266  0.0223                 1
    ##  6            0    631       1         0          0          0          0        6.45 0.456  0.482  0.0200 0.0213 0.0200                 1
    ##  7            0   1300       2      1114.      5725        461       2019.       7.17 0.0500 0.525  0.324  0.0510 0.0500                 0
    ##  8            1   6400       3       849.      4600        469.      1953.       8.76 0.0400 0.840  0.0400 0.0404 0.0400                 0
    ##  9            0   1100       3       935.      4760        461       1953.       7.00 0.0400 0.0418 0.258  0.620  0.0400                 0
    ## 10            1   1500       3       827.      4383.       480.      1953.       7.31 0.0333 0.677  0.0333 0.223  0.0335                 0
    ## # ... with 4,931 more rows, and 18 more variables: weekday_is_tuesday <dbl>, weekday_is_wednesday <dbl>, weekday_is_thursday <dbl>,
    ## #   weekday_is_friday <dbl>, weekday_is_saturday <dbl>, weekday_is_sunday <dbl>, self_reference_min_shares <dbl>,
    ## #   self_reference_avg_sharess <dbl>, n_non_stop_unique_tokens <dbl>, n_unique_tokens <dbl>, average_token_length <dbl>,
    ## #   n_tokens_content <dbl>, n_tokens_title <dbl>, global_subjectivity <dbl>, num_imgs <dbl>, num_videos <dbl>, class.shares <fct>,
    ## #   day.week <fct>
…
``` r
plot2 <- plot1 %>% pivot_longer(cols = 4:8, names_to = "LDA.Topic", values_to = "avg.LDA")
plot2
```

    ## # A tibble: 70 x 5
    ##    day.week class.shares Avg_keyword LDA.Topic avg.LDA
    ##    <fct>    <fct>              <dbl> <chr>       <dbl>
    ##  1 Monday   Unpopular          3060. LDA_0      0.0648
    ##  2 Monday   Unpopular          3060. LDA_1      0.433 
    ##  3 Monday   Unpopular          3060. LDA_2      0.0890
    ##  4 Monday   Unpopular          3060. LDA_3      0.348 
    ##  5 Monday   Unpopular          3060. LDA_4      0.0649
    ##  6 Monday   Popular            3274. LDA_0      0.0603
    ##  7 Monday   Popular            3274. LDA_1      0.437 
    ##  8 Monday   Popular            3274. LDA_2      0.0757
    ##  9 Monday   Popular            3274. LDA_3      0.366 
    ## 10 Monday   Popular            3274. LDA_4      0.0610
    ## # ... with 60 more rows
…
``` r
l.plot2 <- l.plot1 %>% pivot_longer(cols = 3:7, names_to = "LDA.Topic", values_to = "avg.LDA")
l.plot2
```

    ## # A tibble: 35 x 4
    ##    day.week Avg_keyword LDA.Topic avg.LDA
    ##    <fct>          <dbl> <chr>       <dbl>
    ##  1 Monday         3138. LDA_0      0.0632
    ##  2 Monday         3138. LDA_1      0.435 
    ##  3 Monday         3138. LDA_2      0.0841
    ##  4 Monday         3138. LDA_3      0.355 
    ##  5 Monday         3138. LDA_4      0.0634
    ##  6 Tuesday        3196. LDA_0      0.0666
    ##  7 Tuesday        3196. LDA_1      0.430 
    ##  8 Tuesday        3196. LDA_2      0.0836
    ##  9 Tuesday        3196. LDA_3      0.354 
    ## 10 Tuesday        3196. LDA_4      0.0643
    ## # ... with 25 more rows
…
