…
    ## [1] 39644    61

``` r
all_news <- allnews %>% mutate(class_shares = if_else(shares < 1400, 0, 1))
news <- all_news %>% filter(data_channel_is_lifestyle == 1) %>% select(
  -data_channel_is_lifestyle, -data_channel_is_entertainment, -data_channel_is_bus, -data_channel_is_socmed, 
  -data_channel_is_tech, -data_channel_is_world, -url, -timedelta)
#news <- allnews %>% filter(data_channel_is_lifestyle == 1) %>% select(
#  n_tokens_title, n_tokens_content, num_hrefs, num_imgs, num_videos, kw_avg_min, kw_avg_max, avg_negative_polarity, 
#  avg_positive_polarity, title_subjectivity, title_sentiment_polarity, shares)
news
```

    ## # A tibble: 2,099 x 54
    ##    n_tokens_title n_tokens_content n_unique_tokens n_non_stop_words n_non_stop_unique_tokens num_hrefs num_self_hrefs num_imgs num_videos
    ##             <dbl>            <dbl>           <dbl>            <dbl>                    <dbl>     <dbl>          <dbl>    <dbl>      <dbl>
    ##  1              8              960           0.418             1.00                    0.550        21             20       20          0
    ##  2             10              187           0.667             1.00                    0.800         7              0        1          0
    ##  3             11              103           0.689             1.00                    0.806         3              1        1          0
    ##  4             10              243           0.619             1.00                    0.824         1              1        0          0
    ##  5              8              204           0.586             1.00                    0.698         7              2        1          0
    ##  6             11              315           0.551             1.00                    0.702         4              4        1          0
    ##  7             10             1190           0.409             1.00                    0.561        25             24       20          0
    ##  8              6              374           0.641             1.00                    0.828         7              0        1          0
    ##  9             12              499           0.513             1.00                    0.662        14              1        1          0
    ## 10             11              223           0.662             1.00                    0.826         5              3        0          0
    ## # ... with 2,089 more rows, and 45 more variables: average_token_length <dbl>, num_keywords <dbl>, kw_min_min <dbl>, kw_max_min <dbl>,
    ## #   kw_avg_min <dbl>, kw_min_max <dbl>, kw_max_max <dbl>, kw_avg_max <dbl>, kw_min_avg <dbl>, kw_max_avg <dbl>, kw_avg_avg <dbl>,
    ## #   self_reference_min_shares <dbl>, self_reference_max_shares <dbl>, self_reference_avg_sharess <dbl>, weekday_is_monday <dbl>,
    ## #   weekday_is_tuesday <dbl>, weekday_is_wednesday <dbl>, weekday_is_thursday <dbl>, weekday_is_friday <dbl>, weekday_is_saturday <dbl>,
    ## #   weekday_is_sunday <dbl>, is_weekend <dbl>, LDA_00 <dbl>, LDA_01 <dbl>, LDA_02 <dbl>, LDA_03 <dbl>, LDA_04 <dbl>,
    ## #   global_subjectivity <dbl>, global_sentiment_polarity <dbl>, global_rate_positive_words <dbl>, global_rate_negative_words <dbl>,
    ## #   rate_positive_words <dbl>, rate_negative_words <dbl>, avg_positive_polarity <dbl>, min_positive_polarity <dbl>, ...
…
