…
sel_data <- diffday %>% select(class_shares, shares, log.shares, dayweek, 
                               kw_avg_avg, 
                               LDA_00, LDA_01, LDA_02, LDA_03, LDA_04, 
                               weekday_is_monday, weekday_is_tuesday, weekday_is_wednesday,
                               weekday_is_thursday, weekday_is_friday, weekday_is_saturday, weekday_is_sunday,
                               self_reference_avg_sharess, 
                               n_non_stop_unique_tokens, average_token_length, 
                               n_tokens_content, n_tokens_title, global_subjectivity, 
                               num_imgs)
sel_data
```

    ## # A tibble: 2,323 x 24
    ##    class_shares shares log.shares dayweek kw_avg_avg LDA_00 LDA_01 LDA_02 LDA_03 LDA_04 weekday_is_monday weekday_is_tuesd~ weekday_is_wedn~
    ##           <dbl>  <dbl>      <dbl>   <dbl>      <dbl>  <dbl>  <dbl>  <dbl>  <dbl>  <dbl>             <dbl>             <dbl>            <dbl>
    ##  1            1   2600       7.86       1         0  0.439  0.0225 0.0224 0.0233 0.493                  1                 0                0
    ##  2            0    690       6.54       1         0  0.199  0.248  0.0201 0.513  0.0202                 1                 0                0
    ##  3            1   4800       8.48       1         0  0.0298 0.194  0.0288 0.718  0.0293                 1                 0                0
    ##  4            0    851       6.75       1         0  0.0355 0.0338 0.0336 0.863  0.0341                 1                 0                0
    ##  5            1   4800       8.48       3       832. 0.0231 0.0223 0.0224 0.910  0.0226                 0                 0                1
    ##  6            1   9200       9.13       3      1072. 0.0356 0.0334 0.619  0.0337 0.279                  0                 0                1
    ##  7            1   1600       7.38       3      1564. 0.865  0.0334 0.0336 0.0347 0.0336                 0                 0                1
    ##  8            0    775       6.65       4      1862. 0.509  0.0287 0.0299 0.404  0.0286                 0                 0                0
    ##  9            1  18200       9.81       5      2210. 0.800  0.0500 0.0502 0.0501 0.0500                 0                 0                0
    ## 10            1   1600       7.38       5      1398. 0.189  0.0250 0.319  0.0254 0.441                  0                 0                0
    ## # ... with 2,313 more rows, and 11 more variables: weekday_is_thursday <dbl>, weekday_is_friday <dbl>, weekday_is_saturday <dbl>,
    ## #   weekday_is_sunday <dbl>, self_reference_avg_sharess <dbl>, n_non_stop_unique_tokens <dbl>, average_token_length <dbl>,
    ## #   n_tokens_content <dbl>, n_tokens_title <dbl>, global_subjectivity <dbl>, num_imgs <dbl>
…
``` r
b.plot2 <- b.plot1 %>% pivot_longer(cols = 3:7, names_to = "LDA.Topic", values_to = "avg.LDA")
b.plot2
```

    ## # A tibble: 70 x 4
    ##    day.week class.shares LDA.Topic avg.LDA
    ##    <fct>    <fct>        <chr>       <dbl>
    ##  1 Monday   Unpopular    LDA_0      0.279 
    ##  2 Monday   Unpopular    LDA_1      0.167 
    ##  3 Monday   Unpopular    LDA_2      0.176 
    ##  4 Monday   Unpopular    LDA_3      0.229 
    ##  5 Monday   Unpopular    LDA_4      0.148 
    ##  6 Monday   Popular      LDA_0      0.408 
    ##  7 Monday   Popular      LDA_1      0.0785
    ##  8 Monday   Popular      LDA_2      0.180 
    ##  9 Monday   Popular      LDA_3      0.195 
    ## 10 Monday   Popular      LDA_4      0.139 
    ## # ... with 60 more rows
…
``` r
l.plot2 <- l.plot1 %>% pivot_longer(cols = 3:7, names_to = "LDA.Topic", values_to = "avg.LDA")
l.plot2
```

    ## # A tibble: 70 x 4
    ##    day.week class.shares LDA.Topic avg.LDA
    ##    <fct>    <fct>        <chr>       <dbl>
    ##  1 Monday   Unpopular    LDA_0      0.279 
    ##  2 Monday   Unpopular    LDA_1      0.167 
    ##  3 Monday   Unpopular    LDA_2      0.176 
    ##  4 Monday   Unpopular    LDA_3      0.229 
    ##  5 Monday   Unpopular    LDA_4      0.148 
    ##  6 Monday   Popular      LDA_0      0.408 
    ##  7 Monday   Popular      LDA_1      0.0785
    ##  8 Monday   Popular      LDA_2      0.180 
    ##  9 Monday   Popular      LDA_3      0.195 
    ## 10 Monday   Popular      LDA_4      0.139 
    ## # ... with 60 more rows
…
Ilana

short but reasonably thorough explanation of the ensemble model you are
using

Categorical variables have to be divided their levels into dummy
variables style.

``` r
train2 <- train %>% select(-class_shares, -shares, -dayweek, -LDA_00, -LDA_01, -LDA_03, -LDA_04)
test2 <- test %>% select(-class_shares, -shares, -dayweek, -LDA_00, -LDA_01, -LDA_03, -LDA_04)
train2
```

    ## # A tibble: 1,628 x 17
    ##    log.shares kw_avg_avg LDA_02 weekday_is_monday weekday_is_tuesday weekday_is_wednesday weekday_is_thur~ weekday_is_frid~ weekday_is_satu~
    ##         <dbl>      <dbl>  <dbl>             <dbl>              <dbl>                <dbl>            <dbl>            <dbl>            <dbl>
    ##  1       7.86         0  0.0224                 1                  0                    0                0                0                0
    ##  2       6.54         0  0.0201                 1                  0                    0                0                0                0
    ##  3       8.48         0  0.0288                 1                  0                    0                0                0                0
    ##  4       6.75         0  0.0336                 1                  0                    0                0                0                0
    ##  5       8.48       832. 0.0224                 0                  0                    1                0                0                0
    ##  6       9.13      1072. 0.619                  0                  0                    1                0                0                0
    ##  7       7.38      1564. 0.0336                 0                  0                    1                0                0                0
    ##  8       6.65      1862. 0.0299                 0                  0                    0                1                0                0
    ##  9       9.81      2210. 0.0502                 0                  0                    0                0                1                0
    ## 10       7.38      1398. 0.319                  0                  0                    0                0                1                0
    ## # ... with 1,618 more rows, and 8 more variables: weekday_is_sunday <dbl>, self_reference_avg_sharess <dbl>,
    ## #   n_non_stop_unique_tokens <dbl>, average_token_length <dbl>, n_tokens_content <dbl>, n_tokens_title <dbl>, global_subjectivity <dbl>,
    ## #   num_imgs <dbl>
…
