…
set.seed(388588)
sharesIndex <- createDataPartition(sel_data$shares, p = 0.7, list = FALSE)
train <- sel_data[sharesIndex, ]
test <- sel_data[-sharesIndex, ]

train1 <- train %>% select(-class_shares, -shares, 
                           -weekday_is_monday, -weekday_is_tuesday, -weekday_is_wednesday, -weekday_is_thursday, 
                           -weekday_is_friday, -weekday_is_saturday, -weekday_is_sunday, -LDA_00, -LDA_01, -LDA_03, -LDA_04)
train1
```

    ## # A tibble: 5,145 x 10
    ##    log.shares dayweek kw_avg_avg LDA_02 self_reference_avg_sh~ average_token_len~ n_tokens_content n_tokens_title global_subjectiv~ num_imgs
    ##         <dbl>   <dbl>      <dbl>  <dbl>                  <dbl>              <dbl>            <dbl>          <dbl>             <dbl>    <dbl>
    ##  1       6.22       1          0 0.0286                  3151.               4.68             1072             13             0.514       20
    ##  2       6.75       1          0 0.0222                  8500                4.36              370             10             0.437        0
    ##  3       9.75       1          0 0.0250                  2830.               4.72             1207              8             0.539       42
    ##  4       7.94       1          0 0.0200                  3151.               4.69             1248             13             0.507       20
    ##  5       6.10       1          0 0.0286                  3151.               4.63             1154             11             0.534       20
    ##  6       6.66       1          0 0.0202                   924                4.26              266              8             0.313        1
    ##  7       7.31       1          0 0.133                   2500                4.78              331              8             0.561        1
    ##  8       7.50       1          0 0.0222                  3036.               4.64             1225             12             0.481       28
    ##  9       8.27       1          0 0.0286                     0                4.99              633             10             0.532       19
    ## 10       8.95       1          0 0.0200                  3713.               4.75             1244             10             0.512       20
    ## # ... with 5,135 more rows
…
``` r
train2 <- train %>% select(-class_shares, -shares, -dayweek, -LDA_00, -LDA_01, -LDA_03, -LDA_04)
test2 <- test %>% select(-class_shares, -shares, -dayweek, -LDA_00, -LDA_01, -LDA_03, -LDA_04)
train2
```

    ## # A tibble: 5,145 x 16
    ##    log.shares kw_avg_avg LDA_02 weekday_is_monday weekday_is_tuesday weekday_is_wednesday weekday_is_thur~ weekday_is_frid~ weekday_is_satu~
    ##         <dbl>      <dbl>  <dbl>             <dbl>              <dbl>                <dbl>            <dbl>            <dbl>            <dbl>
    ##  1       6.22          0 0.0286                 1                  0                    0                0                0                0
    ##  2       6.75          0 0.0222                 1                  0                    0                0                0                0
    ##  3       9.75          0 0.0250                 1                  0                    0                0                0                0
    ##  4       7.94          0 0.0200                 1                  0                    0                0                0                0
    ##  5       6.10          0 0.0286                 1                  0                    0                0                0                0
    ##  6       6.66          0 0.0202                 1                  0                    0                0                0                0
    ##  7       7.31          0 0.133                  1                  0                    0                0                0                0
    ##  8       7.50          0 0.0222                 1                  0                    0                0                0                0
    ##  9       8.27          0 0.0286                 1                  0                    0                0                0                0
    ## 10       8.95          0 0.0200                 1                  0                    0                0                0                0
    ## # ... with 5,135 more rows, and 7 more variables: weekday_is_sunday <dbl>, self_reference_avg_sharess <dbl>, average_token_length <dbl>,
    ## #   n_tokens_content <dbl>, n_tokens_title <dbl>, global_subjectivity <dbl>, num_imgs <dbl>
…
