…
set.seed(388588)
sharesIndex <- createDataPartition(sel_data$shares, p = 0.7, list = FALSE)
train <- sel_data[sharesIndex, ]
test <- sel_data[-sharesIndex, ]

train1 <- train %>% select(-class_shares, -shares, 
                           -weekday_is_monday, -weekday_is_tuesday, -weekday_is_wednesday, -weekday_is_thursday, 
                           -weekday_is_friday, -weekday_is_saturday, -weekday_is_sunday, -LDA_00, -LDA_01, -LDA_03, -LDA_04)
train1
```

    ## # A tibble: 5,900 x 10
    ##    log.shares dayweek kw_avg_avg LDA_02 self_reference_avg_sh~ average_token_len~ n_tokens_content n_tokens_title global_subjectiv~ num_imgs
    ##         <dbl>   <dbl>      <dbl>  <dbl>                  <dbl>              <dbl>            <dbl>          <dbl>             <dbl>    <dbl>
    ##  1       6.57       1         0   0.840                     0                5.09              231             10             0.314        1
    ##  2       7.70       1         0   0.401                     0                4.62             1248              9             0.482        1
    ##  3       7.38       1         0   0.867                     0                4.62              682             12             0.473        1
    ##  4       7.31       1         0   0.700                 16100                4.82              125             11             0.396        1
    ##  5       7.50       1         0   0.840                  1560.               5.24              317             11             0.375        1
    ##  6       7.09       1         0   0.485                     0                4.58              399             11             0.565        1
    ##  7       6.20       1         0   0.702                     0                5.01              443              9             0.420        1
    ##  8       6.63       2       804.  0.862                  3100                4.38              288             12             0.450        0
    ##  9       6.15       2       728.  0.700                     0                4.98              414             10             0.343        1
    ## 10       7.24       3      1047.  0.602                     0                4.15              540             12             0.387       10
    ## # ... with 5,890 more rows
…
``` r
train2 <- train %>% select(-class_shares, -shares, -dayweek, -LDA_00, -LDA_01, -LDA_03, -LDA_04)
test2 <- test %>% select(-class_shares, -shares, -dayweek, -LDA_00, -LDA_01, -LDA_03, -LDA_04)
train2
```

    ## # A tibble: 5,900 x 16
    ##    log.shares kw_avg_avg LDA_02 weekday_is_monday weekday_is_tuesday weekday_is_wednesday weekday_is_thur~ weekday_is_frid~ weekday_is_satu~
    ##         <dbl>      <dbl>  <dbl>             <dbl>              <dbl>                <dbl>            <dbl>            <dbl>            <dbl>
    ##  1       6.57         0   0.840                 1                  0                    0                0                0                0
    ##  2       7.70         0   0.401                 1                  0                    0                0                0                0
    ##  3       7.38         0   0.867                 1                  0                    0                0                0                0
    ##  4       7.31         0   0.700                 1                  0                    0                0                0                0
    ##  5       7.50         0   0.840                 1                  0                    0                0                0                0
    ##  6       7.09         0   0.485                 1                  0                    0                0                0                0
    ##  7       6.20         0   0.702                 1                  0                    0                0                0                0
    ##  8       6.63       804.  0.862                 0                  1                    0                0                0                0
    ##  9       6.15       728.  0.700                 0                  1                    0                0                0                0
    ## 10       7.24      1047.  0.602                 0                  0                    1                0                0                0
    ## # ... with 5,890 more rows, and 7 more variables: weekday_is_sunday <dbl>, self_reference_avg_sharess <dbl>, average_token_length <dbl>,
    ## #   n_tokens_content <dbl>, n_tokens_title <dbl>, global_subjectivity <dbl>, num_imgs <dbl>
…
