Predictive Models for Popularity of Online News
…
set.seed(388588)
sharesIndex <- createDataPartition(sel_data$shares, p = 0.7, list = FALSE)
train <- sel_data[sharesIndex, ]
test <- sel_data[-sharesIndex, ]
train

## # A tibble: 1,472 x 23
##    class_shares shares log.shares dayweek kw_avg_avg LDA_00 LDA_01 LDA_02 LDA_03
##           <dbl>  <dbl>      <dbl>   <dbl>      <dbl>  <dbl>  <dbl>  <dbl>  <dbl>
##  1            0    556       6.32       1         0  0.0201 0.115  0.0200 0.0200
##  2            1   1900       7.55       1         0  0.0286 0.0286 0.0286 0.0287
##  3            1   5700       8.65       1         0  0.437  0.200  0.0335 0.0334
##  4            0    462       6.14       1         0  0.0200 0.0200 0.0200 0.0200
##  5            1   3600       8.19       1         0  0.211  0.0255 0.0251 0.0251
##  6            0    343       5.84       1         0  0.0201 0.0206 0.0205 0.121 
##  7            0    507       6.23       1         0  0.0250 0.160  0.0250 0.0250
##  8            0    552       6.31       1         0  0.207  0.146  0.276  0.0251
##  9            0   1200       7.09       2       885. 0.0202 0.133  0.120  0.0201
## 10            1   1900       7.55       3      1207. 0.0335 0.217  0.0334 0.0335
## # ... with 1,462 more rows, and 14 more variables: LDA_04 <dbl>,
## #   weekday_is_monday <dbl>, weekday_is_tuesday <dbl>,
## #   weekday_is_wednesday <dbl>, weekday_is_thursday <dbl>,
## #   weekday_is_friday <dbl>, weekday_is_saturday <dbl>,
## #   weekday_is_sunday <dbl>, self_reference_avg_sharess <dbl>,
## #   average_token_length <dbl>, n_tokens_content <dbl>, n_tokens_title <dbl>,
## #   global_subjectivity <dbl>, num_imgs <dbl>
…
We standardized both the training set and the test set before we fit the linear regression models. We used the standardized mean and standard deviation values from the training set on the test set so that the predictors on both sets have the same means and standard deviations. Standardizing the variables is very important prior to model fitting so that all the variables are on the same scale. The variables with large values do not look more important than the variables with smaller values. Especially in our data set where some variable values are unbounded, skewed to one side, and some variables are ratios between 0 and 1.

#train1$dayweek <- as.factor(train1$dayweek)
#test1$dayweek <- as.factor(test1$dayweek)
train1$dayweek <- cut(train1$dayweek, 7, c("Monday", "Tuesday", "Wednesday", "Thursday", "Friday", "Saturday", "Sunday"))
test1$dayweek <- cut(test1$dayweek, 7, c("Monday", "Tuesday", "Wednesday", "Thursday", "Friday", "Saturday", "Sunday"))
preProcValues <- preProcess(train1, method = c("center", "scale"))
trainTransformed1 <- predict(preProcValues, train1)
testTransformed1 <- predict(preProcValues, test1)
trainTransformed1

## # A tibble: 1,472 x 10
##    log.shares dayweek   kw_avg_avg LDA_02 self_reference_avg_~ average_token_le~
##         <dbl> <fct>          <dbl>  <dbl>                <dbl>             <dbl>
##  1    -1.37   Monday         -2.56 -0.522            -0.186               0.116 
##  2    -0.0588 Monday         -2.56 -0.441            -0.378               0.122 
##  3     1.11   Monday         -2.56 -0.396            -0.0730              0.477 
##  4    -1.56   Monday         -2.56 -0.522            -0.378              -0.400 
##  5     0.621  Monday         -2.56 -0.474            -0.378               0.149 
##  6    -1.88   Monday         -2.56 -0.517             0.000276           -0.403 
##  7    -1.46   Monday         -2.56 -0.475            -0.186               0.0511
##  8    -1.37   Monday         -2.56  1.88             -0.378               0.600 
##  9    -0.548  Tuesday        -1.89  0.420            -0.299               0.932 
## 10    -0.0588 Wednesday      -1.65 -0.397             0.336              -0.0792
## # ... with 1,462 more rows, and 4 more variables: n_tokens_content <dbl>,
## #   n_tokens_title <dbl>, global_subjectivity <dbl>, num_imgs <dbl>
…
Random Forest

The bootstrap approach to fitting a tree model involves resampling our data and fitting a tree to each sample, and then averaging the resulting predictions of each of those models. The random forest approach adds an extra step for each of these samples, where only a random subset of the predictor variables is chosen each time, in order to reduce the correlation between each of the trees. We dont have to worry about creating dummy variables for categorical variables, because our data already comes in an entirely numeric form.

Again, we standardized both the training set and the test set before we fit the each of the ensemble models. We used the standardized mean and standard deviation values of the predictors from the training set on the test set so that the predictors on both sets have the same means and standard deviations.

train2 <- train %>% select(-class_shares, -shares, -dayweek, -LDA_00, -LDA_01, -LDA_03, -LDA_04)
test2 <- test %>% select(-class_shares, -shares, -dayweek, -LDA_00, -LDA_01, -LDA_03, -LDA_04)
preProcValues2 <- preProcess(train2, method = c("center", "scale"))
trainTransformed2 <- predict(preProcValues2, train2)
testTransformed2 <- predict(preProcValues2, test2)
trainTransformed2

## # A tibble: 1,472 x 16
##    log.shares kw_avg_avg LDA_02 weekday_is_monday weekday_is_tuesday
##         <dbl>      <dbl>  <dbl>             <dbl>              <dbl>
##  1    -1.37        -2.56 -0.522             2.37              -0.436
##  2    -0.0588      -2.56 -0.441             2.37              -0.436
##  3     1.11        -2.56 -0.396             2.37              -0.436
##  4    -1.56        -2.56 -0.522             2.37              -0.436
##  5     0.621       -2.56 -0.474             2.37              -0.436
##  6    -1.88        -2.56 -0.517             2.37              -0.436
##  7    -1.46        -2.56 -0.475             2.37              -0.436
##  8    -1.37        -2.56  1.88              2.37              -0.436
##  9    -0.548       -1.89  0.420            -0.422              2.29 
## 10    -0.0588      -1.65 -0.397            -0.422             -0.436
## # ... with 1,462 more rows, and 11 more variables: weekday_is_wednesday <dbl>,
## #   weekday_is_thursday <dbl>, weekday_is_friday <dbl>,
## #   weekday_is_saturday <dbl>, weekday_is_sunday <dbl>,
## #   self_reference_avg_sharess <dbl>, average_token_length <dbl>,
## #   n_tokens_content <dbl>, n_tokens_title <dbl>, global_subjectivity <dbl>,
## #   num_imgs <dbl>
…
